<?xml version="1.1" encoding="UTF-8"?>
<svg xmlns="http://www.w3.org/2000/svg"
    xmlns:latexdraw="http://latexdraw.sourceforge.net/namespaces/latexdraw"
    version="1.1" baseProfile="full">
    <g>
        <g latexdraw:type="text" id="id822227307" fill="black" latexdraw:position="bl">
            <text x="180.0" y="160.0000000000001">\footnotesize $f_{1,\!1}$</text>
        </g>
        <g latexdraw:type="rectangle" id="id1416692349">
            <rect x="180.5" y="120.5" width="19.0" height="59.0"
                latexdraw:borderPos="outer" stroke-width="1.0"
                stroke="black" fill="none"/>
        </g>
        <g latexdraw:type="rectangle" id="id2087744003">
            <rect x="200.5" y="180.5" width="19.0" height="59.0"
                latexdraw:borderPos="outer" stroke-width="1.0"
                stroke="black" fill="none"/>
        </g>
        <g latexdraw:type="rectangle" id="id459771345">
            <rect x="220.5" y="240.5" width="19.0" height="59.0"
                latexdraw:borderPos="outer" stroke-width="1.0"
                stroke="black" fill="none"/>
        </g>
        <g latexdraw:type="rectangle" id="id215998111">
            <rect x="340.5" y="240.5" width="19.0" height="59.0"
                latexdraw:borderPos="outer" stroke-width="1.0"
                stroke="black" fill="none"/>
        </g>
        <g latexdraw:type="rectangle" id="id608866932">
            <rect x="340.5" y="300.5" width="19.0" height="59.0"
                latexdraw:borderPos="outer" stroke-width="1.0"
                stroke="black" fill="none"/>
        </g>
        <g latexdraw:type="rectangle" id="id662089669">
            <rect x="400.5" y="120.5" width="19.0" height="179.0"
                latexdraw:borderPos="outer" stroke-width="1.0"
                stroke="black" fill="none"/>
        </g>
        <g latexdraw:type="rectangle" id="id1894427735">
            <rect x="240.5" y="120.5" width="19.0" height="59.0"
                latexdraw:borderPos="outer" stroke-width="1.0"
                stroke="black" fill="none"/>
        </g>
        <g latexdraw:type="rectangle" id="id1253158708">
            <rect x="260.5" y="180.5" width="19.0" height="59.0"
                latexdraw:borderPos="outer" stroke-width="1.0"
                stroke="black" fill="none"/>
        </g>
        <g latexdraw:type="rectangle" id="id1979532349">
            <rect x="280.5" y="240.5" width="19.0" height="59.0"
                latexdraw:borderPos="outer" stroke-width="1.0"
                stroke="black" fill="none"/>
        </g>
        <g latexdraw:type="rectangle" id="id864272632">
            <rect x="400.5" y="300.5" width="19.0" height="179.0"
                latexdraw:borderPos="outer" stroke-width="1.0"
                stroke="black" fill="none"/>
        </g>
        <g latexdraw:type="text" id="id1854397244" fill="black" latexdraw:position="bl">
            <text x="343.0" y="280.0000000000001">\large $z_1$</text>
        </g>
        <g latexdraw:type="text" id="id299263992" fill="black" latexdraw:position="bl">
            <text x="343.0" y="340.0000000000001">\large $z_2$</text>
        </g>
        <g latexdraw:type="text" id="id394720234" fill="black" latexdraw:position="bl">
            <text x="400.0" y="220.0000000000001">\large $x_1$</text>
        </g>
        <g latexdraw:type="text" id="id71493490" fill="black" latexdraw:position="bl">
            <text x="400.0" y="400.0000000000001">\large $x_2$</text>
        </g>
        <g latexdraw:type="rectangle" id="id129622280">
            <rect x="180.5" y="300.5" width="19.0" height="59.0"
                latexdraw:borderPos="outer" stroke-width="1.0"
                stroke="black" fill="none"/>
        </g>
        <g latexdraw:type="rectangle" id="id1275950183">
            <rect x="200.5" y="360.5" width="19.0" height="59.0"
                latexdraw:borderPos="outer" stroke-width="1.0"
                stroke="black" fill="none"/>
        </g>
        <g latexdraw:type="rectangle" id="id387868838">
            <rect x="220.5" y="420.5" width="19.0" height="59.0"
                latexdraw:borderPos="outer" stroke-width="1.0"
                stroke="black" fill="none"/>
        </g>
        <g latexdraw:type="rectangle" id="id368027775">
            <rect x="240.5" y="300.5" width="19.0" height="59.0"
                latexdraw:borderPos="outer" stroke-width="1.0"
                stroke="black" fill="none"/>
        </g>
        <g latexdraw:type="rectangle" id="id357315738">
            <rect x="260.5" y="360.5" width="19.0" height="59.0"
                latexdraw:borderPos="outer" stroke-width="1.0"
                stroke="black" fill="none"/>
        </g>
        <g latexdraw:type="rectangle" id="id2106475041">
            <rect x="280.5" y="420.5" width="19.0" height="59.0"
                latexdraw:borderPos="outer" stroke-width="1.0"
                stroke="black" fill="none"/>
        </g>
        <g latexdraw:type="text" id="id564966525" fill="black" latexdraw:position="">
            <text x="380.0" y="300.0000000000001">\huge$=$</text>
        </g>
        <g latexdraw:type="text" id="id1197954898" fill="black" latexdraw:position="">
            <text x="320.0" y="300.0000000000001">\huge$\cdot$</text>
        </g>
        <g latexdraw:type="rectangle" id="id985801979">
            <rect x="240.5" y="300.5" width="59.0" height="179.0"
                latexdraw:borderPos="outer" stroke-width="1.0"
                stroke="black" fill="none" stroke-dasharray="8.819444444444445, 5.291666666666667"/>
        </g>
        <g latexdraw:type="rectangle" id="id869373709">
            <rect x="180.5" y="120.5" width="59.0" height="179.0"
                latexdraw:borderPos="outer" stroke-width="1.0"
                stroke="black" fill="none" stroke-dasharray="8.819444444444445, 5.291666666666667"/>
        </g>
        <g latexdraw:type="rectangle" id="id1698663227">
            <rect x="240.5" y="120.5" width="59.0" height="179.0"
                latexdraw:borderPos="outer" stroke-width="1.0"
                stroke="black" fill="none" stroke-dasharray="8.819444444444445, 5.291666666666667"/>
        </g>
        <g latexdraw:type="rectangle" id="id1867638412">
            <rect x="180.5" y="300.5" width="59.0" height="179.0"
                latexdraw:borderPos="outer" stroke-width="1.0"
                stroke="black" fill="none" stroke-dasharray="8.819444444444445, 5.291666666666667"/>
        </g>
        <g latexdraw:type="text" id="id1610462908" fill="black" latexdraw:position="bl">
            <text x="200.0" y="220.0000000000001">\footnotesize $f_{1,\!1}$</text>
        </g>
        <g latexdraw:type="text" id="id2020749983" fill="black" latexdraw:position="bl">
            <text x="220.0" y="280.0000000000001">\footnotesize $f_{1,\!1}$</text>
        </g>
        <g latexdraw:type="text" id="id1830544057" fill="black" latexdraw:position="bl">
            <text x="240.0" y="160.0000000000001">\footnotesize $f_{1,\!2}$</text>
        </g>
        <g latexdraw:type="text" id="id2036583693" fill="black" latexdraw:position="bl">
            <text x="260.0" y="220.0000000000001">\footnotesize $f_{1,\!2}$</text>
        </g>
        <g latexdraw:type="text" id="id458436799" fill="black" latexdraw:position="bl">
            <text x="280.0" y="280.0000000000001">\footnotesize $f_{1,\!2}$</text>
        </g>
        <g latexdraw:type="text" id="id197045609" fill="black" latexdraw:position="bl">
            <text x="260.0" y="400.0000000000001">\footnotesize $f_{2,\!2}$</text>
        </g>
        <g latexdraw:type="text" id="id1482442544" fill="black" latexdraw:position="bl">
            <text x="240.0" y="340.0000000000001">\footnotesize $f_{2,\!2}$</text>
        </g>
        <g latexdraw:type="text" id="id1512775354" fill="black" latexdraw:position="bl">
            <text x="280.0" y="460.0000000000001">\footnotesize $f_{2,\!2}$</text>
        </g>
        <g latexdraw:type="text" id="id2029274425" fill="black" latexdraw:position="bl">
            <text x="180.0" y="340.0000000000001">\footnotesize $f_{2,\!1}$</text>
        </g>
        <g latexdraw:type="text" id="id1608031951" fill="black" latexdraw:position="bl">
            <text x="200.0" y="400.0000000000001">\footnotesize $f_{2,\!1}$</text>
        </g>
        <g latexdraw:type="text" id="id412462462" fill="black" latexdraw:position="bl">
            <text x="220.0" y="460.0000000000001">\footnotesize $f_{2,\!1}$</text>
        </g>
        <g latexdraw:type="bezierCurve" id="id1781004939">
            <path
                d="M 427.29216601881046 120.79924378245549 C 447.0771122553695 121.37988894374602 440.6254993521438 156.7992437824559 447.2921660188106 192.79924378245576 C 453.9588326854774 228.79924378245562 453.95883268547726 192.79924378245576 447.2921660188107 228.79924378245562 C 440.6254993521441 264.7992437824555 447.50721978225164 304.86375991148805 427.2921660188105 300.79924378245596 "
                stroke-width="2.0" stroke="black" fill="none" latexdraw:rotationAngle="0.0"/>
        </g>
        <g latexdraw:type="text" id="id980349260" fill="black" latexdraw:position="bl">
            <text x="470.0" y="220.0000000000001">\footnotesize $D_1$</text>
        </g>
        <g latexdraw:type="text" id="id1710113603" fill="black" latexdraw:position="bl">
            <text x="203.0" y="90.0">\footnotesize $D_0$</text>
        </g>
        <g latexdraw:type="bezierCurve" id="id814300156">
            <path
                d="M 171.47548587614682 180.12179081209663 C 151.47548606657736 180.12455074340977 163.47681058368244 162.3040713446631 156.8840429329791 154.29815642294886 C 150.29127528227576 146.29224150123463 150.21740789914395 154.29213467260996 156.95791031611034 146.29826325157347 C 163.69841273307674 138.30439183053699 152.0000001904305 120.00275993131311 172.0 120.0 "
                stroke-width="2.0" stroke="black" fill="none" latexdraw:rotationAngle="0.0"/>
        </g>
        <g latexdraw:type="text" id="id1083761852" fill="black" latexdraw:position="bl">
            <text x="141.0" y="156.0">$l$</text>
        </g>
        <g latexdraw:type="bezierCurve" id="id959930760">
            <path
                d="M 182.44228247173817 114.69455835411833 C 182.04415651516905 94.69852135368488 200.09839969403106 106.34521957268808 207.97242216381994 99.59547667572181 C 215.84644463360883 92.84573377875554 207.8466545066467 92.93002534574846 215.97221229078207 99.51118510872826 C 224.09777007491743 106.09234487170805 242.16456754544504 94.03442567511456 242.56269350201444 114.03046267554794 "
                stroke-width="2.0" stroke="black" fill="none" latexdraw:rotationAngle="0.0"/>
        </g>
        <g latexdraw:type="bezierCurve" id="id526981676">
            <path
                d="M 174.77056437938938 479.1758489806057 C 154.99001774970986 478.46085148552595 161.6820257270905 443.0861283703666 155.26 407.0416831671871 C 148.8379742729095 370.9972379640076 148.59348707479217 406.99640776012836 155.50448719811743 371.0425133710662 C 162.4154873214427 335.08861898200405 155.80601618364824 294.97829088548565 175.9930003699743 299.18 "
                stroke-width="2.0" stroke="black" fill="none" latexdraw:rotationAngle="3.1483840168543935"/>
        </g>
        <g latexdraw:type="text" id="id493178443" fill="black" latexdraw:position="bl">
            <text x="130.0" y="396.0">\footnotesize $D_1$</text>
        </g>
    </g>
    <defs/>
    <metadata>
        <latexdraw:metadata>
            <latexdraw:latexIncludes>
\usepackage{mathtext}</latexdraw:latexIncludes>
            <latexdraw:displayXScale>true</latexdraw:displayXScale>
            <latexdraw:displayYScale>true</latexdraw:displayYScale>
            <latexdraw:unit>CM</latexdraw:unit>
            <latexdraw:zoom>1.8000000000000007</latexdraw:zoom>
            <latexdraw:magneticGridStyle>CUSTOMISED</latexdraw:magneticGridStyle>
            <latexdraw:gridGap>20</latexdraw:gridGap>
            <latexdraw:magneticGrid>true</latexdraw:magneticGrid>
            <latexdraw:version>3.3.8</latexdraw:version>
            <latexdraw:size>
                <latexdraw:width>1839</latexdraw:width>
                <latexdraw:height>1176</latexdraw:height>
            </latexdraw:size>
            <latexdraw:position>
                <latexdraw:x>81.0</latexdraw:x>
                <latexdraw:y>24.0</latexdraw:y>
            </latexdraw:position>
        </latexdraw:metadata>
    </metadata>
</svg>
