%!PS-Adobe-3.0 EPSF-3.0
%%Creator: (MATLAB, The Mathworks, Inc. Version 9.3.0.713579 \(R2017b\). Operating System: Mac OS X)
%%Title: /Volumes/Data/2018.nips/2018.generative-model/paper/supplementary/g_theta.eps
%%CreationDate: 2018-10-27T03:33:36
%%Pages: (atend)
%%BoundingBox: 0 0 700 420
%%LanguageLevel: 3
%%EndComments
%%BeginProlog
%%BeginResource: procset (Apache XML Graphics Std ProcSet) 1.2 0
%%Version: 1.2 0
%%Copyright: (Copyright 2001-2003,2010 The Apache Software Foundation. License terms: http://www.apache.org/licenses/LICENSE-2.0)
/bd{bind def}bind def
/ld{load def}bd
/GR/grestore ld
/GS/gsave ld
/RM/rmoveto ld
/C/curveto ld
/t/show ld
/L/lineto ld
/ML/setmiterlimit ld
/CT/concat ld
/f/fill ld
/N/newpath ld
/S/stroke ld
/CC/setcmykcolor ld
/A/ashow ld
/cp/closepath ld
/RC/setrgbcolor ld
/LJ/setlinejoin ld
/GC/setgray ld
/LW/setlinewidth ld
/M/moveto ld
/re {4 2 roll M
1 index 0 rlineto
0 exch rlineto
neg 0 rlineto
cp } bd
/_ctm matrix def
/_tm matrix def
/BT { _ctm currentmatrix pop matrix _tm copy pop 0 0 moveto } bd
/ET { _ctm setmatrix } bd
/iTm { _ctm setmatrix _tm concat } bd
/Tm { _tm astore pop iTm 0 0 moveto } bd
/ux 0.0 def
/uy 0.0 def
/F {
  /Tp exch def
  /Tf exch def
  Tf findfont Tp scalefont setfont
  /cf Tf def  /cs Tp def
} bd
/ULS {currentpoint /uy exch def /ux exch def} bd
/ULE {
  /Tcx currentpoint pop def
  gsave
  newpath
  cf findfont cs scalefont dup
  /FontMatrix get 0 get /Ts exch def /FontInfo get dup
  /UnderlinePosition get Ts mul /To exch def
  /UnderlineThickness get Ts mul /Tt exch def
  ux uy To add moveto  Tcx uy To add lineto
  Tt setlinewidth stroke
  grestore
} bd
/OLE {
  /Tcx currentpoint pop def
  gsave
  newpath
  cf findfont cs scalefont dup
  /FontMatrix get 0 get /Ts exch def /FontInfo get dup
  /UnderlinePosition get Ts mul /To exch def
  /UnderlineThickness get Ts mul /Tt exch def
  ux uy To add cs add moveto Tcx uy To add cs add lineto
  Tt setlinewidth stroke
  grestore
} bd
/SOE {
  /Tcx currentpoint pop def
  gsave
  newpath
  cf findfont cs scalefont dup
  /FontMatrix get 0 get /Ts exch def /FontInfo get dup
  /UnderlinePosition get Ts mul /To exch def
  /UnderlineThickness get Ts mul /Tt exch def
  ux uy To add cs 10 mul 26 idiv add moveto Tcx uy To add cs 10 mul 26 idiv add lineto
  Tt setlinewidth stroke
  grestore
} bd
/QT {
/Y22 exch store
/X22 exch store
/Y21 exch store
/X21 exch store
currentpoint
/Y21 load 2 mul add 3 div exch
/X21 load 2 mul add 3 div exch
/X21 load 2 mul /X22 load add 3 div
/Y21 load 2 mul /Y22 load add 3 div
/X22 load /Y22 load curveto
} bd
/SSPD {
dup length /d exch dict def
{
/v exch def
/k exch def
currentpagedevice k known {
/cpdv currentpagedevice k get def
v cpdv ne {
/upd false def
/nullv v type /nulltype eq def
/nullcpdv cpdv type /nulltype eq def
nullv nullcpdv or
{
/upd true def
} {
/sametype v type cpdv type eq def
sametype {
v type /arraytype eq {
/vlen v length def
/cpdvlen cpdv length def
vlen cpdvlen eq {
0 1 vlen 1 sub {
/i exch def
/obj v i get def
/cpdobj cpdv i get def
obj cpdobj ne {
/upd true def
exit
} if
} for
} {
/upd true def
} ifelse
} {
v type /dicttype eq {
v {
/dv exch def
/dk exch def
/cpddv cpdv dk get def
dv cpddv ne {
/upd true def
exit
} if
} forall
} {
/upd true def
} ifelse
} ifelse
} if
} ifelse
upd true eq {
d k v put
} if
} if
} if
} forall
d length 0 gt {
d setpagedevice
} if
} bd
/RE { % /NewFontName [NewEncodingArray] /FontName RE -
  findfont dup length dict begin
  {
    1 index /FID ne
    {def} {pop pop} ifelse
  } forall
  /Encoding exch def
  /FontName 1 index def
  currentdict definefont pop
  end
} bind def
%%EndResource
%%BeginResource: procset (Apache XML Graphics EPS ProcSet) 1.0 0
%%Version: 1.0 0
%%Copyright: (Copyright 2002-2003 The Apache Software Foundation. License terms: http://www.apache.org/licenses/LICENSE-2.0)
/BeginEPSF { %def
/b4_Inc_state save def         % Save state for cleanup
/dict_count countdictstack def % Count objects on dict stack
/op_count count 1 sub def      % Count objects on operand stack
userdict begin                 % Push userdict on dict stack
/showpage { } def              % Redefine showpage, { } = null proc
0 setgray 0 setlinecap         % Prepare graphics state
1 setlinewidth 0 setlinejoin
10 setmiterlimit [ ] 0 setdash newpath
/languagelevel where           % If level not equal to 1 then
{pop languagelevel             % set strokeadjust and
1 ne                           % overprint to their defaults.
{false setstrokeadjust false setoverprint
} if
} if
} bd
/EndEPSF { %def
count op_count sub {pop} repeat            % Clean up stacks
countdictstack dict_count sub {end} repeat
b4_Inc_state restore
} bd
%%EndResource
%FOPBeginFontDict
%%IncludeResource: font Courier-Oblique
%%IncludeResource: font Courier-BoldOblique
%%IncludeResource: font Courier-Bold
%%IncludeResource: font ZapfDingbats
%%IncludeResource: font Symbol
%%IncludeResource: font Helvetica
%%IncludeResource: font Helvetica-Oblique
%%IncludeResource: font Helvetica-Bold
%%IncludeResource: font Helvetica-BoldOblique
%%IncludeResource: font Times-Roman
%%IncludeResource: font Times-Italic
%%IncludeResource: font Times-Bold
%%IncludeResource: font Times-BoldItalic
%%IncludeResource: font Courier
%FOPEndFontDict
%%BeginResource: encoding WinAnsiEncoding
/WinAnsiEncoding [
/.notdef /.notdef /.notdef /.notdef /.notdef
/.notdef /.notdef /.notdef /.notdef /.notdef
/.notdef /.notdef /.notdef /.notdef /.notdef
/.notdef /.notdef /.notdef /.notdef /.notdef
/.notdef /.notdef /.notdef /.notdef /.notdef
/.notdef /.notdef /.notdef /.notdef /.notdef
/.notdef /.notdef /space /exclam /quotedbl
/numbersign /dollar /percent /ampersand /quotesingle
/parenleft /parenright /asterisk /plus /comma
/hyphen /period /slash /zero /one
/two /three /four /five /six
/seven /eight /nine /colon /semicolon
/less /equal /greater /question /at
/A /B /C /D /E
/F /G /H /I /J
/K /L /M /N /O
/P /Q /R /S /T
/U /V /W /X /Y
/Z /bracketleft /backslash /bracketright /asciicircum
/underscore /quoteleft /a /b /c
/d /e /f /g /h
/i /j /k /l /m
/n /o /p /q /r
/s /t /u /v /w
/x /y /z /braceleft /bar
/braceright /asciitilde /bullet /Euro /bullet
/quotesinglbase /florin /quotedblbase /ellipsis /dagger
/daggerdbl /circumflex /perthousand /Scaron /guilsinglleft
/OE /bullet /Zcaron /bullet /bullet
/quoteleft /quoteright /quotedblleft /quotedblright /bullet
/endash /emdash /asciitilde /trademark /scaron
/guilsinglright /oe /bullet /zcaron /Ydieresis
/space /exclamdown /cent /sterling /currency
/yen /brokenbar /section /dieresis /copyright
/ordfeminine /guillemotleft /logicalnot /sfthyphen /registered
/macron /degree /plusminus /twosuperior /threesuperior
/acute /mu /paragraph /middot /cedilla
/onesuperior /ordmasculine /guillemotright /onequarter /onehalf
/threequarters /questiondown /Agrave /Aacute /Acircumflex
/Atilde /Adieresis /Aring /AE /Ccedilla
/Egrave /Eacute /Ecircumflex /Edieresis /Igrave
/Iacute /Icircumflex /Idieresis /Eth /Ntilde
/Ograve /Oacute /Ocircumflex /Otilde /Odieresis
/multiply /Oslash /Ugrave /Uacute /Ucircumflex
/Udieresis /Yacute /Thorn /germandbls /agrave
/aacute /acircumflex /atilde /adieresis /aring
/ae /ccedilla /egrave /eacute /ecircumflex
/edieresis /igrave /iacute /icircumflex /idieresis
/eth /ntilde /ograve /oacute /ocircumflex
/otilde /odieresis /divide /oslash /ugrave
/uacute /ucircumflex /udieresis /yacute /thorn
/ydieresis
] def
%%EndResource
%FOPBeginFontReencode
/Courier-Oblique findfont
dup length dict begin
  {1 index /FID ne {def} {pop pop} ifelse} forall
  /Encoding WinAnsiEncoding def
  currentdict
end
/Courier-Oblique exch definefont pop
/Courier-BoldOblique findfont
dup length dict begin
  {1 index /FID ne {def} {pop pop} ifelse} forall
  /Encoding WinAnsiEncoding def
  currentdict
end
/Courier-BoldOblique exch definefont pop
/Courier-Bold findfont
dup length dict begin
  {1 index /FID ne {def} {pop pop} ifelse} forall
  /Encoding WinAnsiEncoding def
  currentdict
end
/Courier-Bold exch definefont pop
/Helvetica findfont
dup length dict begin
  {1 index /FID ne {def} {pop pop} ifelse} forall
  /Encoding WinAnsiEncoding def
  currentdict
end
/Helvetica exch definefont pop
/Helvetica-Oblique findfont
dup length dict begin
  {1 index /FID ne {def} {pop pop} ifelse} forall
  /Encoding WinAnsiEncoding def
  currentdict
end
/Helvetica-Oblique exch definefont pop
/Helvetica-Bold findfont
dup length dict begin
  {1 index /FID ne {def} {pop pop} ifelse} forall
  /Encoding WinAnsiEncoding def
  currentdict
end
/Helvetica-Bold exch definefont pop
/Helvetica-BoldOblique findfont
dup length dict begin
  {1 index /FID ne {def} {pop pop} ifelse} forall
  /Encoding WinAnsiEncoding def
  currentdict
end
/Helvetica-BoldOblique exch definefont pop
/Times-Roman findfont
dup length dict begin
  {1 index /FID ne {def} {pop pop} ifelse} forall
  /Encoding WinAnsiEncoding def
  currentdict
end
/Times-Roman exch definefont pop
/Times-Italic findfont
dup length dict begin
  {1 index /FID ne {def} {pop pop} ifelse} forall
  /Encoding WinAnsiEncoding def
  currentdict
end
/Times-Italic exch definefont pop
/Times-Bold findfont
dup length dict begin
  {1 index /FID ne {def} {pop pop} ifelse} forall
  /Encoding WinAnsiEncoding def
  currentdict
end
/Times-Bold exch definefont pop
/Times-BoldItalic findfont
dup length dict begin
  {1 index /FID ne {def} {pop pop} ifelse} forall
  /Encoding WinAnsiEncoding def
  currentdict
end
/Times-BoldItalic exch definefont pop
/Courier findfont
dup length dict begin
  {1 index /FID ne {def} {pop pop} ifelse} forall
  /Encoding WinAnsiEncoding def
  currentdict
end
/Courier exch definefont pop
%FOPEndFontReencode
%%EndProlog
%%Page: 1 1
%%PageBoundingBox: 0 0 700 420
%%BeginPageSetup
[1 0 0 -1 0 420] CT
%%EndPageSetup
GS
1 GC
N
0 0 700 420 re
f
GR
GS
1 GC
N
0 0 700 420 re
f
GR
GS
1 GC
N
91 365 M
633.5 365 L
633.5 31.5 L
91 31.5 L
cp
f
GR
GS
0.873 GC
1 LJ
0.5 LW
N
91 365 M
91 31.5 L
S
GR
GS
0.873 GC
1 LJ
0.5 LW
N
226.412 365 M
226.412 31.5 L
S
GR
GS
0.873 GC
1 LJ
0.5 LW
N
361.823 365 M
361.823 31.5 L
S
GR
GS
0.873 GC
1 LJ
0.5 LW
N
497.235 365 M
497.235 31.5 L
S
GR
GS
0.873 GC
1 LJ
0.5 LW
N
632.646 365 M
632.646 31.5 L
S
GR
GS
0.873 GC
1 LJ
0.5 LW
N
633.5 365 M
91 365 L
S
GR
GS
0.873 GC
1 LJ
0.5 LW
N
633.5 199.869 M
91 199.869 L
S
GR
GS
0.873 GC
1 LJ
0.5 LW
N
633.5 34.739 M
91 34.739 L
S
GR
GS
0.149 GC
2 setlinecap
1 LJ
0.5 LW
N
91 365 M
633.5 365 L
S
GR
GS
0.149 GC
2 setlinecap
1 LJ
0.5 LW
N
91 31.5 M
633.5 31.5 L
S
GR
GS
0.149 GC
2 setlinecap
1 LJ
0.5 LW
N
91 365 M
91 359.575 L
S
GR
GS
0.149 GC
2 setlinecap
1 LJ
0.5 LW
N
226.412 365 M
226.412 359.575 L
S
GR
GS
0.149 GC
2 setlinecap
1 LJ
0.5 LW
N
361.823 365 M
361.823 359.575 L
S
GR
GS
0.149 GC
2 setlinecap
1 LJ
0.5 LW
N
497.235 365 M
497.235 359.575 L
S
GR
GS
0.149 GC
2 setlinecap
1 LJ
0.5 LW
N
632.646 365 M
632.646 359.575 L
S
GR
GS
0.149 GC
2 setlinecap
1 LJ
0.5 LW
N
91 31.5 M
91 36.925 L
S
GR
GS
0.149 GC
2 setlinecap
1 LJ
0.5 LW
N
226.412 31.5 M
226.412 36.925 L
S
GR
GS
0.149 GC
2 setlinecap
1 LJ
0.5 LW
N
361.823 31.5 M
361.823 36.925 L
S
GR
GS
0.149 GC
2 setlinecap
1 LJ
0.5 LW
N
497.235 31.5 M
497.235 36.925 L
S
GR
GS
0.149 GC
2 setlinecap
1 LJ
0.5 LW
N
632.646 31.5 M
632.646 36.925 L
S
GR
GS
[1 0 0 1 91 371] CT
0.149 GC
/Helvetica 20 F
GS
[1 0 0 1 0 0] CT
-6 20 moveto 
1 -1 scale
(0) t 
GR
GR
GS
[1 0 0 1 211 391] CT
0.149 GC
N
2.016 -0.344 M
2.016 -0.453 2.094 -0.672 QT
2.656 -1.828 3.141 -2.945 QT
3.625 -4.063 4.008 -5.125 QT
4.391 -6.188 4.719 -7.391 QT
3.438 -7.391 L
2.703 -7.391 2.07 -6.93 QT
1.438 -6.469 1.016 -5.766 QT
0.984 -5.688 0.906 -5.688 QT
0.672 -5.688 L
0.484 -5.688 0.484 -5.875 QT
0.484 -5.922 0.516 -6 QT
1.172 -7.109 1.922 -7.867 QT
2.672 -8.625 3.609 -8.625 QT
10.859 -8.625 L
11.063 -8.625 11.211 -8.484 QT
11.359 -8.344 11.359 -8.109 QT
11.359 -7.828 11.148 -7.609 QT
10.938 -7.391 10.641 -7.391 QT
8.094 -7.391 L
7.781 -5.813 7.75 -4.313 QT
7.75 -2.391 8.422 -0.844 QT
8.484 -0.719 8.484 -0.594 QT
8.484 -0.375 8.352 -0.195 QT
8.219 -0.016 8.023 0.102 QT
7.828 0.219 7.594 0.219 QT
7.078 0.219 6.883 -0.641 QT
6.688 -1.5 6.688 -2.313 QT
6.688 -3.453 6.883 -4.508 QT
7.078 -5.563 7.5 -7.391 QT
5.328 -7.391 L
3.734 -0.984 3.422 -0.328 QT
3.141 0.219 2.641 0.219 QT
2.391 0.219 2.203 0.063 QT
2.016 -0.094 2.016 -0.344 QT
cp
f
GR
GS
[1 0 0 1 223 391] CT
0.149 GC
/Helvetica 20 F
GS
[1 0 0 1 0 0] CT
0 0 moveto 
1 -1 scale
(/4) t 
GR
GR
GS
[1 0 0 1 347 391] CT
0.149 GC
N
/f-134270611{2.016 -0.344 M
2.016 -0.453 2.094 -0.672 QT
2.656 -1.828 3.141 -2.945 QT
3.625 -4.063 4.008 -5.125 QT
4.391 -6.188 4.719 -7.391 QT
3.438 -7.391 L
2.703 -7.391 2.07 -6.93 QT
1.438 -6.469 1.016 -5.766 QT
0.984 -5.688 0.906 -5.688 QT
0.672 -5.688 L
0.484 -5.688 0.484 -5.875 QT
0.484 -5.922 0.516 -6 QT
1.172 -7.109 1.922 -7.867 QT
2.672 -8.625 3.609 -8.625 QT
10.859 -8.625 L
11.063 -8.625 11.211 -8.484 QT
11.359 -8.344 11.359 -8.109 QT
11.359 -7.828 11.148 -7.609 QT
10.938 -7.391 10.641 -7.391 QT
8.094 -7.391 L
7.781 -5.813 7.75 -4.313 QT
7.75 -2.391 8.422 -0.844 QT
8.484 -0.719 8.484 -0.594 QT
8.484 -0.375 8.352 -0.195 QT
8.219 -0.016 8.023 0.102 QT
7.828 0.219 7.594 0.219 QT
7.078 0.219 6.883 -0.641 QT
6.688 -1.5 6.688 -2.313 QT
6.688 -3.453 6.883 -4.508 QT
7.078 -5.563 7.5 -7.391 QT
5.328 -7.391 L
3.734 -0.984 3.422 -0.328 QT
3.141 0.219 2.641 0.219 QT
2.391 0.219 2.203 0.063 QT
2.016 -0.094 2.016 -0.344 QT
cp}def
f-134270611
f
GR
GS
[1 0 0 1 359 391] CT
0.149 GC
/Helvetica 20 F
GS
[1 0 0 1 0 0] CT
0 0 moveto 
1 -1 scale
(/2) t 
GR
GR
GS
[1 0 0 1 476 391] CT
0.149 GC
/Helvetica 20 F
GS
[1 0 0 1 0 0] CT
0 0 moveto 
1 -1 scale
(3) t 
GR
GR
GS
[1 0 0 1 488 391] CT
0.149 GC
N
f-134270611
f
GR
GS
[1 0 0 1 500 391] CT
0.149 GC
/Helvetica 20 F
GS
[1 0 0 1 0 0] CT
0 0 moveto 
1 -1 scale
(/4) t 
GR
GR
GS
[1 0 0 1 627 391] CT
0.149 GC
N
f-134270611
f
GR
GS
[1 0 0 1 357 416] CT
0.149 GC
N
/f352554889{3.219 0.219 M
2.313 0.219 1.766 -0.445 QT
1.219 -1.109 1.008 -2.047 QT
0.797 -2.984 0.797 -3.891 QT
0.797 -3.922 L
0.797 -4.906 0.992 -5.984 QT
1.188 -7.063 1.547 -8.133 QT
1.906 -9.203 2.328 -10.047 QT
2.625 -10.625 3.086 -11.352 QT
3.547 -12.078 4.117 -12.703 QT
4.688 -13.328 5.344 -13.719 QT
6 -14.109 6.688 -14.109 QT
6.703 -14.109 L
7.422 -14.109 7.906 -13.703 QT
8.391 -13.297 8.656 -12.672 QT
8.922 -12.047 9.031 -11.336 QT
9.141 -10.625 9.141 -9.984 QT
9.141 -8.469 8.734 -6.891 QT
8.328 -5.313 7.594 -3.844 QT
7.328 -3.281 6.844 -2.531 QT
6.359 -1.781 5.82 -1.188 QT
5.281 -0.594 4.602 -0.188 QT
3.922 0.219 3.25 0.219 QT
3.219 0.219 L
cp
3.266 -0.297 M
3.922 -0.297 4.531 -1.008 QT
5.141 -1.719 5.602 -2.727 QT
6.063 -3.734 6.414 -4.797 QT
6.766 -5.859 6.922 -6.609 QT
2.844 -6.609 L
2.531 -5.344 2.352 -4.43 QT
2.172 -3.516 2.172 -2.641 QT
2.172 -0.297 3.266 -0.297 QT
cp
3 -7.313 M
7.094 -7.313 L
7.313 -8.188 7.438 -8.773 QT
7.563 -9.359 7.656 -10.016 QT
7.75 -10.672 7.75 -11.234 QT
7.75 -13.578 6.688 -13.578 QT
5.406 -13.578 4.484 -11.539 QT
3.563 -9.5 3 -7.313 QT
cp}def
f352554889
f
GR
GS
0.149 GC
2 setlinecap
1 LJ
0.5 LW
N
91 365 M
91 31.5 L
S
GR
GS
0.149 GC
2 setlinecap
1 LJ
0.5 LW
N
633.5 365 M
633.5 31.5 L
S
GR
GS
0.149 GC
2 setlinecap
1 LJ
0.5 LW
N
91 365 M
96.425 365 L
S
GR
GS
0.149 GC
2 setlinecap
1 LJ
0.5 LW
N
91 199.869 M
96.425 199.869 L
S
GR
GS
0.149 GC
2 setlinecap
1 LJ
0.5 LW
N
91 34.739 M
96.425 34.739 L
S
GR
GS
0.149 GC
2 setlinecap
1 LJ
0.5 LW
N
633.5 365 M
628.075 365 L
S
GR
GS
0.149 GC
2 setlinecap
1 LJ
0.5 LW
N
633.5 199.869 M
628.075 199.869 L
S
GR
GS
0.149 GC
2 setlinecap
1 LJ
0.5 LW
N
633.5 34.739 M
628.075 34.739 L
S
GR
GS
[1 0 0 1 85 365] CT
0.149 GC
/Helvetica 20 F
GS
[1 0 0 1 0 0] CT
-12 7.5 moveto 
1 -1 scale
(0) t 
GR
GR
GS
[1 0 0 1 55 208] CT
0.149 GC
N
f-134270611
f
GR
GS
[1 0 0 1 67 208] CT
0.149 GC
/Helvetica 20 F
GS
[1 0 0 1 0 0] CT
0 0 moveto 
1 -1 scale
(/4) t 
GR
GR
GS
[1 0 0 1 55 43] CT
0.149 GC
N
f-134270611
f
GR
GS
[1 0 0 1 67 43] CT
0.149 GC
/Helvetica 20 F
GS
[1 0 0 1 0 0] CT
0 0 moveto 
1 -1 scale
(/2) t 
GR
GR
GS
[0 -1 1 0 48 215] CT
0.149 GC
/Helvetica 20 F
GS
[1 0 0 1 0 0] CT
0 0 moveto 
1 -1 scale
(g\() t 
GR
GR
GS
[0 -1 1 0 48 198] CT
0.149 GC
N
f352554889
f
GR
GS
[0 -1 1 0 48 188] CT
0.149 GC
/Helvetica 20 F
GS
[1 0 0 1 0 0] CT
0 0 moveto 
1 -1 scale
(\)) t 
GR
GR
GS
1 0 0 RC
1 LJ
3 LW
N
91 365 M
92.724 362.9 L
94.448 360.804 L
96.172 358.713 L
97.896 356.626 L
99.621 354.543 L
101.345 352.466 L
103.069 350.392 L
104.793 348.323 L
106.517 346.259 L
108.241 344.199 L
109.965 342.144 L
111.689 340.094 L
113.413 338.047 L
115.138 336.006 L
116.862 333.969 L
118.586 331.937 L
120.31 329.909 L
122.034 327.886 L
123.758 325.868 L
125.482 323.854 L
127.206 321.845 L
128.931 319.841 L
130.655 317.841 L
132.379 315.846 L
134.103 313.856 L
135.827 311.871 L
137.551 309.89 L
139.275 307.914 L
140.999 305.943 L
142.723 303.977 L
144.448 302.016 L
146.172 300.059 L
147.896 298.107 L
149.62 296.161 L
151.344 294.219 L
153.068 292.282 L
154.792 290.35 L
156.516 288.423 L
158.24 286.501 L
159.965 284.584 L
161.689 282.672 L
163.413 280.765 L
165.137 278.864 L
166.861 276.967 L
168.585 275.075 L
170.309 273.189 L
172.033 271.308 L
173.757 269.432 L
175.482 267.561 L
177.206 265.695 L
178.93 263.835 L
180.654 261.98 L
182.378 260.13 L
184.102 258.285 L
185.826 256.446 L
187.55 254.613 L
189.274 252.784 L
190.999 250.962 L
192.723 249.144 L
194.447 247.332 L
196.171 245.526 L
197.895 243.725 L
199.619 241.93 L
201.343 240.141 L
203.067 238.357 L
204.792 236.578 L
206.516 234.806 L
208.24 233.039 L
209.964 231.278 L
211.688 229.522 L
213.412 227.773 L
215.136 226.029 L
216.86 224.291 L
218.584 222.559 L
220.309 220.833 L
222.033 219.113 L
223.757 217.399 L
225.481 215.691 L
227.205 213.989 L
228.929 212.294 L
230.653 210.604 L
232.377 208.92 L
234.101 207.243 L
235.826 205.572 L
237.55 203.907 L
239.274 202.249 L
240.998 200.597 L
242.722 198.951 L
244.446 197.311 L
246.17 195.678 L
247.894 194.052 L
249.618 192.432 L
251.343 190.818 L
253.067 189.212 L
254.791 187.611 L
256.515 186.018 L
258.239 184.431 L
259.963 182.851 L
261.687 181.277 L
263.411 179.711 L
265.135 178.151 L
266.86 176.598 L
268.584 175.052 L
270.308 173.513 L
272.032 171.982 L
273.756 170.457 L
275.48 168.939 L
277.204 167.428 L
278.928 165.924 L
280.653 164.428 L
282.377 162.939 L
284.101 161.457 L
285.825 159.982 L
287.549 158.515 L
289.273 157.055 L
290.997 155.603 L
292.721 154.158 L
294.445 152.72 L
296.17 151.291 L
297.894 149.868 L
299.618 148.454 L
301.342 147.047 L
303.066 145.647 L
304.79 144.256 L
306.514 142.872 L
308.238 141.496 L
309.962 140.128 L
311.687 138.768 L
313.411 137.415 L
315.135 136.071 L
316.859 134.735 L
318.583 133.407 L
320.307 132.087 L
322.031 130.775 L
323.755 129.471 L
325.479 128.176 L
327.204 126.888 L
328.928 125.609 L
330.652 124.339 L
332.376 123.077 L
334.1 121.823 L
335.824 120.578 L
337.548 119.341 L
339.272 118.112 L
340.997 116.893 L
342.721 115.681 L
344.445 114.479 L
346.169 113.285 L
347.893 112.1 L
349.617 110.924 L
351.341 109.756 L
353.065 108.597 L
354.789 107.447 L
356.514 106.306 L
358.238 105.174 L
359.962 104.051 L
361.686 102.937 L
363.41 101.832 L
365.134 100.736 L
366.858 99.649 L
368.582 98.571 L
370.306 97.502 L
372.031 96.442 L
373.755 95.392 L
375.479 94.351 L
377.203 93.319 L
378.927 92.297 L
380.651 91.283 L
382.375 90.279 L
384.099 89.285 L
385.823 88.3 L
387.548 87.324 L
389.272 86.358 L
390.996 85.401 L
392.72 84.453 L
394.444 83.515 L
396.168 82.587 L
397.892 81.668 L
399.616 80.759 L
401.341 79.859 L
403.065 78.969 L
404.789 78.089 L
406.513 77.218 L
408.237 76.356 L
409.961 75.505 L
411.685 74.663 L
413.409 73.831 L
415.133 73.008 L
416.858 72.195 L
418.582 71.392 L
420.306 70.598 L
422.03 69.814 L
423.754 69.04 L
425.478 68.276 L
427.202 67.521 L
428.926 66.776 L
430.65 66.04 L
432.375 65.315 L
434.099 64.599 L
435.823 63.893 L
437.547 63.196 L
439.271 62.509 L
440.995 61.832 L
442.719 61.164 L
444.443 60.506 L
446.167 59.858 L
447.892 59.219 L
449.616 58.59 L
451.34 57.97 L
453.064 57.36 L
454.788 56.76 L
456.512 56.169 L
458.236 55.587 L
459.96 55.015 L
461.685 54.453 L
463.409 53.9 L
465.133 53.356 L
466.857 52.822 L
468.581 52.297 L
470.305 51.781 L
472.029 51.274 L
473.753 50.777 L
475.477 50.289 L
477.202 49.81 L
478.926 49.34 L
480.65 48.879 L
482.374 48.427 L
484.098 47.984 L
485.822 47.55 L
487.546 47.125 L
489.27 46.709 L
490.994 46.301 L
492.719 45.902 L
494.443 45.512 L
496.167 45.13 L
497.891 44.757 L
499.615 44.392 L
501.339 44.036 L
503.063 43.688 L
504.787 43.349 L
506.511 43.017 L
508.236 42.694 L
509.96 42.379 L
511.684 42.072 L
513.408 41.772 L
515.132 41.481 L
516.856 41.197 L
518.58 40.921 L
520.304 40.653 L
522.029 40.392 L
523.753 40.139 L
525.477 39.893 L
527.201 39.654 L
528.925 39.422 L
530.649 39.198 L
532.373 38.981 L
534.097 38.77 L
535.821 38.567 L
537.545 38.37 L
539.27 38.18 L
540.994 37.996 L
542.718 37.819 L
544.442 37.648 L
546.166 37.484 L
547.89 37.325 L
549.614 37.173 L
551.338 37.027 L
553.063 36.886 L
554.787 36.752 L
556.511 36.622 L
558.235 36.499 L
559.959 36.381 L
561.683 36.268 L
563.407 36.16 L
565.131 36.058 L
566.855 35.96 L
568.58 35.867 L
570.304 35.78 L
572.028 35.696 L
573.752 35.617 L
575.476 35.543 L
577.2 35.473 L
578.924 35.407 L
580.648 35.345 L
582.372 35.287 L
584.097 35.233 L
585.821 35.182 L
587.545 35.135 L
589.269 35.092 L
590.993 35.051 L
592.717 35.014 L
594.441 34.98 L
596.165 34.949 L
597.89 34.921 L
599.614 34.895 L
601.338 34.872 L
603.062 34.851 L
604.786 34.832 L
606.51 34.816 L
608.234 34.802 L
609.958 34.789 L
611.682 34.779 L
613.406 34.77 L
615.131 34.762 L
616.855 34.756 L
618.579 34.751 L
620.303 34.747 L
622.027 34.744 L
623.751 34.742 L
625.475 34.74 L
627.199 34.739 L
628.924 34.739 L
630.648 34.739 L
632.372 34.739 L
S
GR
%%Trailer
%%Pages: 1
%%EOF
